Name,Email,Phone,Rate,Primary contact,Suite number,Street address,City,State,Zipcode
John Abbr,John@email.com,$24,John Doe,1234,7647 Country Street,Severna Park,MD,21146
John Abbr1,John1@email.com,$24,John Doe,1234,,,,
