Name,Email,Phone,Rate,Primary contact,Suite number,Street address,City,State,Zipcode
Umesh co,3067kamboj@gmail.com,5496128395,20,sumit,1234,,,,12345
Umesh2 co,30673kamboj@gmail.com,5496128395,$20,sumit2,1214,,,,12245
